<?xml version="1.0" encoding="UTF-16"?>
<!DOCTYPE svg PUBLIC "-//W3C//DTD SVG 1.1//EN" "http://www.w3.org/Graphics/SVG/1.1/DTD/svg11.dtd">
<!-- Creator: CorelDRAW 2019 (64-Bit) -->
<svg xmlns="http://www.w3.org/2000/svg" xml:space="preserve" width="253.052mm" height="372.093mm" version="1.1" style="shape-rendering:geometricPrecision; text-rendering:geometricPrecision; image-rendering:optimizeQuality; fill-rule:evenodd; clip-rule:evenodd"
viewBox="0 0 53155.37 78160.75"
 xmlns:xlink="http://www.w3.org/1999/xlink"
 xmlns:xodm="http://www.corel.com/coreldraw/odm/2003">
 <defs>
  <style type="text/css">
   <![CDATA[
    .fil0 {fill:#EAEFF5;fill-rule:nonzero}
   ]]>
  </style>
 </defs>
 <g id="Layer_x0020_1">
  <metadata id="CorelCorpID_0Corel-Layer"/>
  <g id="_1999392975216">
   <g>
    <path class="fil0" d="M51844.07 75237.58l-8344.64 0 -24581.7 -74337.38c-227.32,-687.75 -969.1,-1061.08 -1656.99,-833.4 -687.75,227.32 -1060.73,969.1 -833.57,1656.83l13604.68 41141.93 -28720.37 -0.88c-724.44,0 -1311.47,587.19 -1311.47,1311.47l0 20083.18c0,391.88 175.38,763.28 477.9,1012.45 236.76,194.97 531.93,299.02 833.57,299.02 83.75,0 168.21,-8.05 251.8,-24.47l863.12 -168.93 1333.67 11621.39c76.06,662.2 636.52,1161.97 1302.9,1161.97l21573.2 0c666.57,0 1227.01,-499.75 1302.9,-1161.95l979.06 -8528.42c7.52,-1.39 15.21,-1.91 22.73,-3.49 3141.24,-633.01 5039.73,-2067.93 5643.02,-4264.56 724.61,-2637.81 -610.97,-6176.33 -3967.47,-10524.66l770.8 -6713.87 9349.39 28273.6 -8076.74 -0.02c-724.44,0 -1311.47,587.19 -1311.47,1311.49 0,724.28 587.03,1311.47 1311.47,1311.47l19184.03 0c724.47,0 1311.49,-587.19 1311.49,-1311.49 0,-724.28 -586.86,-1311.28 -1311.3,-1311.28zm-49221.12 -12571.08l0 -17178.01 11165.69 0 0 14993.43 -11165.69 2184.57zm22843.56 12871.31l-19234.05 0 -1224.04 -10665.59 10343.32 -2023.69c615.53,-120.3 1059.68,-659.75 1059.68,-1287l0 -16073.04 12505.16 0 -621.29 5411.3c-2022.3,-2255.38 -3754.14,-3827.03 -3846.46,-3910.63 -536.84,-485.4 -1366.21,-443.79 -1852.16,93.39 -485.59,537.18 -443.98,1366.38 93.03,1852.33 1602.44,1449.6 3513.69,3427.12 5198.14,5512.91l-2421.33 21090.03zm6588.15 -12029.51c-275.59,1002.67 -1223.35,1737.09 -2818.27,2190.69l930.97 -8109.63c1440.53,2270.26 2298.74,4422.46 1887.3,5918.95z"/>
    <path class="fil0" d="M7080.54 41838.06c1908.64,0 3461.59,-1552.78 3461.59,-3461.4 0,-1908.64 -1552.97,-3461.43 -3461.59,-3461.43 -1908.62,0 -3461.4,1552.78 -3461.4,3461.43 0,1908.62 1552.78,3461.4 3461.4,3461.4zm0 -4300.06c462.52,0 838.65,376.13 838.65,838.46 0,462.34 -376.13,838.48 -838.65,838.48 -462.34,0 -838.46,-376.15 -838.46,-838.48 0,-462.34 376.13,-838.46 838.46,-838.46z"/>
    <path class="fil0" d="M17922.05 37291.62c2537.62,0 4601.87,-2064.44 4601.87,-4601.87 0,-2537.45 -2064.42,-4601.89 -4601.87,-4601.89 -2537.43,0 -4601.68,2064.44 -4601.68,4601.89 0,2537.43 2064.23,4601.87 4601.68,4601.87zm0 -6580.96c1091.14,0 1978.93,887.76 1978.93,1978.91 0,1091.14 -887.79,1978.93 -1978.93,1978.93 -1091.14,0 -1978.74,-887.79 -1978.74,-1978.93 0,-1091.14 887.6,-1978.91 1978.74,-1978.91z"/>
    <path class="fil0" d="M10252.91 29267.15c212.98,503.61 725.85,835.86 1275.28,808.05 547.49,-27.79 1029.95,-405.33 1190.12,-929.04 349.03,-1141.68 -956.33,-2128.26 -1961.09,-1485.63 -525.81,336.26 -747.36,1028.88 -504.31,1606.62 33.4,78.71 -33.04,-78.86 0,0z"/>
   </g>
   <g>
   </g>
   <g>
   </g>
   <g>
   </g>
   <g>
   </g>
   <g>
   </g>
   <g>
   </g>
   <g>
   </g>
   <g>
   </g>
   <g>
   </g>
   <g>
   </g>
   <g>
   </g>
   <g>
   </g>
   <g>
   </g>
   <g>
   </g>
   <g>
   </g>
  </g>
 </g>
</svg>
